D:\UDC\2019-2020\tfg\project\annotationTool\backend\src\main\java\es\udc\project\backend\model\exceptions\AnalysisAlreadySharedException.java
D:\UDC\2019-2020\tfg\project\annotationTool\backend\src\main\java\es\udc\project\backend\rest\common\CommonControllerAdvice.java
D:\UDC\2019-2020\tfg\project\annotationTool\backend\src\main\java\es\udc\project\backend\model\exceptions\AnalysisAlreadyStartedException.java
D:\UDC\2019-2020\tfg\project\annotationTool\backend\src\main\java\es\udc\project\backend\model\exceptions\DuplicatedInstanceException.java
D:\UDC\2019-2020\tfg\project\annotationTool\backend\src\main\java\es\udc\project\backend\model\exceptions\InstanceNotFoundException.java
D:\UDC\2019-2020\tfg\project\annotationTool\backend\src\main\java\es\udc\project\backend\model\services\InternalService.java
D:\UDC\2019-2020\tfg\project\annotationTool\backend\src\main\java\es\udc\project\backend\rest\dtos\conversors\RelationCountConversor.java
D:\UDC\2019-2020\tfg\project\annotationTool\backend\src\main\java\es\udc\project\backend\model\entities\Relation_Type.java
D:\UDC\2019-2020\tfg\project\annotationTool\backend\src\main\java\es\udc\project\backend\rest\dtos\AnalysisDto.java
D:\UDC\2019-2020\tfg\project\annotationTool\backend\src\main\java\es\udc\project\backend\model\entities\Fragment_Group.java
D:\UDC\2019-2020\tfg\project\annotationTool\backend\src\main\java\es\udc\project\backend\model\entities\Speech_Analysis.java
D:\UDC\2019-2020\tfg\project\annotationTool\backend\src\main\java\es\udc\project\backend\model\services\UserServiceImpl.java
D:\UDC\2019-2020\tfg\project\annotationTool\backend\src\main\java\es\udc\project\backend\rest\dtos\params\SpeechAnalysisParamsDto.java
D:\UDC\2019-2020\tfg\project\annotationTool\backend\src\main\java\es\udc\project\backend\model\exceptions\FileStorageException.java
D:\UDC\2019-2020\tfg\project\annotationTool\backend\src\main\java\es\udc\project\backend\rest\dtos\params\ChangePasswordParamsDto.java
D:\UDC\2019-2020\tfg\project\annotationTool\backend\src\main\java\es\udc\project\backend\model\entities\Fragment_Fragment.java
D:\UDC\2019-2020\tfg\project\annotationTool\backend\src\main\java\es\udc\project\backend\rest\dtos\PostListDto.java
D:\UDC\2019-2020\tfg\project\annotationTool\backend\src\main\java\es\udc\project\backend\model\services\AnalysisService.java
D:\UDC\2019-2020\tfg\project\annotationTool\backend\src\main\java\es\udc\project\backend\model\entities\FragmentDao.java
D:\UDC\2019-2020\tfg\project\annotationTool\backend\src\main\java\es\udc\project\backend\model\services\SpeechAnalysisResult.java
D:\UDC\2019-2020\tfg\project\annotationTool\backend\src\main\java\es\udc\project\backend\rest\dtos\conversors\RelationParamsConversor.java
D:\UDC\2019-2020\tfg\project\annotationTool\backend\src\main\java\es\udc\project\backend\rest\dtos\conversors\CommentConversor.java
D:\UDC\2019-2020\tfg\project\annotationTool\backend\src\main\java\es\udc\project\backend\rest\dtos\params\CommentParamsDto.java
D:\UDC\2019-2020\tfg\project\annotationTool\backend\src\main\java\es\udc\project\backend\model\entities\Methodology.java
D:\UDC\2019-2020\tfg\project\annotationTool\backend\src\main\java\es\udc\project\backend\model\entities\MethodologyDao.java
D:\UDC\2019-2020\tfg\project\annotationTool\backend\src\main\java\es\udc\project\backend\model\exceptions\MethodologyRequiredException.java
D:\UDC\2019-2020\tfg\project\annotationTool\backend\src\main\java\es\udc\project\backend\model\services\Statistics.java
D:\UDC\2019-2020\tfg\project\annotationTool\backend\src\main\java\es\udc\project\backend\rest\dtos\conversors\PostConversor.java
D:\UDC\2019-2020\tfg\project\annotationTool\backend\src\main\java\es\udc\project\backend\model\entities\Relation_TypeDao.java
D:\UDC\2019-2020\tfg\project\annotationTool\backend\src\main\java\es\udc\project\backend\model\services\CollectionService.java
D:\UDC\2019-2020\tfg\project\annotationTool\backend\src\main\java\es\udc\project\backend\rest\common\JwtGeneratorImpl.java
D:\UDC\2019-2020\tfg\project\annotationTool\backend\src\main\java\es\udc\project\backend\rest\dtos\AuthenticatedUserDto.java
D:\UDC\2019-2020\tfg\project\annotationTool\backend\src\main\java\es\udc\project\backend\Application.java
D:\UDC\2019-2020\tfg\project\annotationTool\backend\src\main\java\es\udc\project\backend\rest\dtos\conversors\AnalysisConversor.java
D:\UDC\2019-2020\tfg\project\annotationTool\backend\src\main\java\es\udc\project\backend\rest\dtos\conversors\PermissionConversor.java
D:\UDC\2019-2020\tfg\project\annotationTool\backend\src\main\java\es\udc\project\backend\model\exceptions\EmptyCollectionException.java
D:\UDC\2019-2020\tfg\project\annotationTool\backend\src\main\java\es\udc\project\backend\model\entities\CommentDao.java
D:\UDC\2019-2020\tfg\project\annotationTool\backend\src\main\java\es\udc\project\backend\rest\dtos\PermissionDto.java
D:\UDC\2019-2020\tfg\project\annotationTool\backend\src\main\java\es\udc\project\backend\model\entities\Group_Group.java
D:\UDC\2019-2020\tfg\project\annotationTool\backend\src\main\java\es\udc\project\backend\rest\dtos\conversors\GroupParamsConversor.java
D:\UDC\2019-2020\tfg\project\annotationTool\backend\src\main\java\es\udc\project\backend\model\entities\Speech_AnalysisDao.java
D:\UDC\2019-2020\tfg\project\annotationTool\backend\src\main\java\es\udc\project\backend\rest\dtos\params\RelationTargetParamsDto.java
D:\UDC\2019-2020\tfg\project\annotationTool\backend\src\main\java\es\udc\project\backend\rest\dtos\IdDto.java
D:\UDC\2019-2020\tfg\project\annotationTool\backend\src\main\java\es\udc\project\backend\rest\dtos\params\PsychologicalAnalysisParamsDto.java
D:\UDC\2019-2020\tfg\project\annotationTool\backend\src\main\java\es\udc\project\backend\model\exceptions\CommentOutOfBoundsException.java
D:\UDC\2019-2020\tfg\project\annotationTool\backend\src\main\java\es\udc\project\backend\rest\dtos\CommentDto.java
D:\UDC\2019-2020\tfg\project\annotationTool\backend\src\main\java\es\udc\project\backend\model\entities\UserDao.java
D:\UDC\2019-2020\tfg\project\annotationTool\backend\src\main\java\es\udc\project\backend\model\services\UserService.java
D:\UDC\2019-2020\tfg\project\annotationTool\backend\src\main\java\es\udc\project\backend\model\entities\WritingDao.java
D:\UDC\2019-2020\tfg\project\annotationTool\backend\src\main\java\es\udc\project\backend\rest\dtos\RelationCountDto.java
D:\UDC\2019-2020\tfg\project\annotationTool\backend\src\main\java\es\udc\project\backend\rest\dtos\conversors\UserConversor.java
D:\UDC\2019-2020\tfg\project\annotationTool\backend\src\main\java\es\udc\project\backend\rest\dtos\PermittedCollectionsDto.java
D:\UDC\2019-2020\tfg\project\annotationTool\backend\src\main\java\es\udc\project\backend\model\exceptions\IncorrectPasswordException.java
D:\UDC\2019-2020\tfg\project\annotationTool\backend\src\main\java\es\udc\project\backend\model\entities\Collection.java
D:\UDC\2019-2020\tfg\project\annotationTool\backend\src\main\java\es\udc\project\backend\model\exceptions\AnalysisAlreadyFinishedException.java
D:\UDC\2019-2020\tfg\project\annotationTool\backend\src\main\java\es\udc\project\backend\model\services\AnalysisServiceImpl.java
D:\UDC\2019-2020\tfg\project\annotationTool\backend\src\main\java\es\udc\project\backend\model\services\InternalServiceImpl.java
D:\UDC\2019-2020\tfg\project\annotationTool\backend\src\main\java\es\udc\project\backend\rest\controllers\AnalysisController.java
D:\UDC\2019-2020\tfg\project\annotationTool\backend\src\main\java\es\udc\project\backend\rest\common\JwtGenerator.java
D:\UDC\2019-2020\tfg\project\annotationTool\backend\src\main\java\es\udc\project\backend\rest\dtos\SpeechAnalysisDto.java
D:\UDC\2019-2020\tfg\project\annotationTool\backend\src\main\java\es\udc\project\backend\rest\dtos\StatisticsDto.java
D:\UDC\2019-2020\tfg\project\annotationTool\backend\src\main\java\es\udc\project\backend\rest\dtos\conversors\CollectionsConversor.java
D:\UDC\2019-2020\tfg\project\annotationTool\backend\src\main\java\es\udc\project\backend\rest\dtos\conversors\RelationConversor.java
D:\UDC\2019-2020\tfg\project\annotationTool\backend\src\main\java\es\udc\project\backend\model\entities\Group_GroupDao.java
D:\UDC\2019-2020\tfg\project\annotationTool\backend\src\main\java\es\udc\project\backend\model\services\FileStorageService.java
D:\UDC\2019-2020\tfg\project\annotationTool\backend\src\main\java\es\udc\project\backend\rest\common\ErrorsDto.java
D:\UDC\2019-2020\tfg\project\annotationTool\backend\src\main\java\es\udc\project\backend\model\entities\Individual.java
D:\UDC\2019-2020\tfg\project\annotationTool\backend\src\main\java\es\udc\project\backend\rest\dtos\PathologyCountDto.java
D:\UDC\2019-2020\tfg\project\annotationTool\backend\src\main\java\es\udc\project\backend\model\entities\Psychological_AnalysisDao.java
D:\UDC\2019-2020\tfg\project\annotationTool\backend\src\main\java\es\udc\project\backend\rest\common\JwtFilter.java
D:\UDC\2019-2020\tfg\project\annotationTool\backend\src\main\java\es\udc\project\backend\rest\dtos\UserListDto.java
D:\UDC\2019-2020\tfg\project\annotationTool\backend\src\main\java\es\udc\project\backend\model\services\FileStorageServiceImpl.java
D:\UDC\2019-2020\tfg\project\annotationTool\backend\src\main\java\es\udc\project\backend\model\services\StatisticsServiceImpl.java
D:\UDC\2019-2020\tfg\project\annotationTool\backend\src\main\java\es\udc\project\backend\model\template\email.java
D:\UDC\2019-2020\tfg\project\annotationTool\backend\src\main\java\es\udc\project\backend\model\entities\PermissionDao.java
D:\UDC\2019-2020\tfg\project\annotationTool\backend\src\main\java\es\udc\project\backend\model\services\Post.java
D:\UDC\2019-2020\tfg\project\annotationTool\backend\src\main\java\es\udc\project\backend\rest\dtos\PsychologicalAnalysisDto.java
D:\UDC\2019-2020\tfg\project\annotationTool\backend\src\main\java\es\udc\project\backend\model\exceptions\InvalidInputException.java
D:\UDC\2019-2020\tfg\project\annotationTool\backend\src\main\java\es\udc\project\backend\rest\dtos\conversors\PostListConversor.java
D:\UDC\2019-2020\tfg\project\annotationTool\backend\src\main\java\es\udc\project\backend\rest\dtos\params\RelationParamsDto.java
D:\UDC\2019-2020\tfg\project\annotationTool\backend\src\main\java\es\udc\project\backend\model\entities\Fragment.java
D:\UDC\2019-2020\tfg\project\annotationTool\backend\src\main\java\es\udc\project\backend\rest\dtos\CollectionsDto.java
D:\UDC\2019-2020\tfg\project\annotationTool\backend\src\main\java\es\udc\project\backend\model\entities\Writing.java
D:\UDC\2019-2020\tfg\project\annotationTool\backend\src\main\java\es\udc\project\backend\model\exceptions\IncorrectLoginException.java
D:\UDC\2019-2020\tfg\project\annotationTool\backend\src\main\java\es\udc\project\backend\rest\common\SecurityConfig.java
D:\UDC\2019-2020\tfg\project\annotationTool\backend\src\main\java\es\udc\project\backend\model\exceptions\InstanceException.java
D:\UDC\2019-2020\tfg\project\annotationTool\backend\src\main\java\es\udc\project\backend\rest\dtos\BlockDto.java
D:\UDC\2019-2020\tfg\project\annotationTool\backend\src\main\java\es\udc\project\backend\rest\dtos\params\GroupParamsDto.java
D:\UDC\2019-2020\tfg\project\annotationTool\backend\src\main\java\es\udc\project\backend\rest\dtos\PostDto.java
D:\UDC\2019-2020\tfg\project\annotationTool\backend\src\main\java\es\udc\project\backend\rest\controllers\CollectionController.java
D:\UDC\2019-2020\tfg\project\annotationTool\backend\src\main\java\es\udc\project\backend\rest\dtos\params\SegmentParamsDto.java
D:\UDC\2019-2020\tfg\project\annotationTool\backend\src\main\java\es\udc\project\backend\model\entities\Group.java
D:\UDC\2019-2020\tfg\project\annotationTool\backend\src\main\java\es\udc\project\backend\rest\dtos\RelationsDto.java
D:\UDC\2019-2020\tfg\project\annotationTool\backend\src\main\java\es\udc\project\backend\rest\dtos\RelationDto.java
D:\UDC\2019-2020\tfg\project\annotationTool\backend\src\main\java\es\udc\project\backend\rest\dtos\params\LoginParamsDto.java
D:\UDC\2019-2020\tfg\project\annotationTool\backend\src\main\java\es\udc\project\backend\model\entities\Analysis.java
D:\UDC\2019-2020\tfg\project\annotationTool\backend\src\main\java\es\udc\project\backend\rest\dtos\conversors\SegmentParamsConversor.java
D:\UDC\2019-2020\tfg\project\annotationTool\backend\src\main\java\es\udc\project\backend\model\entities\Fragment_GroupDao.java
D:\UDC\2019-2020\tfg\project\annotationTool\backend\src\main\java\es\udc\project\backend\model\services\ApiResponse.java
D:\UDC\2019-2020\tfg\project\annotationTool\backend\src\main\java\es\udc\project\backend\model\services\StatisticsService.java
D:\UDC\2019-2020\tfg\project\annotationTool\backend\src\main\java\es\udc\project\backend\rest\dtos\conversors\PermittedCollectionsConversor.java
D:\UDC\2019-2020\tfg\project\annotationTool\backend\src\main\java\es\udc\project\backend\rest\controllers\StatisticsController.java
D:\UDC\2019-2020\tfg\project\annotationTool\backend\src\main\java\es\udc\project\backend\rest\dtos\SpeechAnalysisResultDto.java
D:\UDC\2019-2020\tfg\project\annotationTool\backend\src\main\java\es\udc\project\backend\model\entities\Psychological_Analysis.java
D:\UDC\2019-2020\tfg\project\annotationTool\backend\src\main\java\es\udc\project\backend\model\exceptions\PermissionException.java
D:\UDC\2019-2020\tfg\project\annotationTool\backend\src\main\java\es\udc\project\backend\rest\dtos\UserDto.java
D:\UDC\2019-2020\tfg\project\annotationTool\backend\src\main\java\es\udc\project\backend\model\exceptions\PasswordNotStrongException.java
D:\UDC\2019-2020\tfg\project\annotationTool\backend\src\main\java\es\udc\project\backend\rest\common\FieldErrorDto.java
D:\UDC\2019-2020\tfg\project\annotationTool\backend\src\main\java\es\udc\project\backend\model\entities\User.java
D:\UDC\2019-2020\tfg\project\annotationTool\backend\src\main\java\es\udc\project\backend\rest\dtos\conversors\UserListConversor.java
D:\UDC\2019-2020\tfg\project\annotationTool\backend\src\main\java\es\udc\project\backend\model\entities\GroupDao.java
D:\UDC\2019-2020\tfg\project\annotationTool\backend\src\main\java\es\udc\project\backend\model\entities\Permission.java
D:\UDC\2019-2020\tfg\project\annotationTool\backend\src\main\java\es\udc\project\backend\model\entities\Fragment_FragmentDao.java
D:\UDC\2019-2020\tfg\project\annotationTool\backend\src\main\java\es\udc\project\backend\model\entities\Comment.java
D:\UDC\2019-2020\tfg\project\annotationTool\backend\src\main\java\es\udc\project\backend\rest\common\JwtInfo.java
D:\UDC\2019-2020\tfg\project\annotationTool\backend\src\main\java\es\udc\project\backend\model\entities\CollectionDao.java
D:\UDC\2019-2020\tfg\project\annotationTool\backend\src\main\java\es\udc\project\backend\model\services\CollectionServiceImpl.java
D:\UDC\2019-2020\tfg\project\annotationTool\backend\src\main\java\es\udc\project\backend\rest\controllers\UserController.java
D:\UDC\2019-2020\tfg\project\annotationTool\backend\src\main\java\es\udc\project\backend\model\services\Block.java
