D:\UDC\2019-2020\tfg\project\annotationTool\backend\src\test\java\es\udc\project\backend\test\model\services\XmlConversorTest.java
D:\UDC\2019-2020\tfg\project\annotationTool\backend\src\test\java\es\udc\project\backend\test\model\services\CollectionServiceTest.java
D:\UDC\2019-2020\tfg\project\annotationTool\backend\src\test\java\es\udc\project\backend\test\model\services\AnalysisServiceTest.java
D:\UDC\2019-2020\tfg\project\annotationTool\backend\src\test\java\es\udc\project\backend\test\model\services\StatisticsServiceTest.java
D:\UDC\2019-2020\tfg\project\annotationTool\backend\src\test\java\es\udc\project\backend\test\model\services\UserServiceTest.java
